%YAML 1.1
%TAG !u! tag:unity3d.com,2011:
--- !u!1045 &1
EditorBuildSettings:
  m_ObjectHideFlags: 0
  serializedVersion: 2
  m_Scenes:
  - enabled: 1
    path: Assets/Scenes/Inicio.unity
    guid: f324611bd253505488df12172415da26
  - enabled: 1
    path: Assets/Scenes/Instrucciones.unity
    guid: 8eb05cdd50b697a46837c67231a51cf2
  - enabled: 1
    path: Assets/Scenes/PantallaSeleccion.unity
    guid: 95ba9d42d004c7a43b5ec8c5c2ac9401
  - enabled: 1
    path: Assets/Scenes/Nicel1-2.unity
    guid: e450e53096a49da4dafdac3e1b4072d6
  - enabled: 1
    path: Assets/Scenes/Nivel1-3.unity
    guid: 920f3378460a6b8449ffe1e90718e4d6
  - enabled: 1
    path: Assets/Scenes/Nivel1.unity
    guid: 2cda990e2423bbf4892e6590ba056729
  - enabled: 1
    path: Assets/Scenes/Nivel2.unity
    guid: e308385327169a048a4bb75375a325af
  - enabled: 1
    path: Assets/Scenes/Nivel3.unity
    guid: 0f59800573b4834419e3007dc95db718
  - enabled: 1
    path: Assets/Scenes/Nivel4.unity
    guid: 22cd405eb5d3cf84ca84b4fe410801f6
  - enabled: 1
    path: Assets/Scenes/Nivel5.unity
    guid: 3aece3a7dfd060d46948f5b993d2158c
  - enabled: 1
    path: Assets/Scenes/Nivel6.unity
    guid: f40b3f2932e38bc489d76f751c592cf1
  - enabled: 1
    path: Assets/Scenes/Nivel7.unity
    guid: 2014549f71c165e4a8b29102c23349c6
  - enabled: 1
    path: Assets/Scenes/Puntuacion.unity
    guid: b5f5f63c98e43f2458fc5811e63a59b6
  - enabled: 1
    path: Assets/Scenes/GameOver.unity
    guid: 0d1701c42ff9d654e8d7feeb6b9e43ea
  m_configObjects: {}
